module gitlab.com/library-go-lang/iencryption

go 1.17

require github.com/stretchr/testify v1.7.0

require (
	github.com/davecgh/go-spew v1.1.1 // indirect
	github.com/kr/pretty v0.1.0 // indirect
	github.com/pmezard/go-difflib v1.0.0 // indirect
	github.com/stretchr/objx v0.3.0 // indirect
	gopkg.in/check.v1 v1.0.0-20180628173108-788fd7840127 // indirect
	gopkg.in/yaml.v3 v3.0.0-20210107192922-496545a6307b // indirect
)
